<?xml version="1.0" encoding="utf-8"?>
<!-- Generator: Adobe Illustrator 19.0.0, SVG Export Plug-In . SVG Version: 6.00 Build 0)  -->
<svg version="1.1" id="Layer_1" xmlns="http://www.w3.org/2000/svg" xmlns:xlink="http://www.w3.org/1999/xlink" x="0px" y="0px"
	 viewBox="0 0 500 136" style="enable-background:new 0 0 500 136;" xml:space="preserve">
<style type="text/css">
	.st0{fill:#292C30;}
</style>
<g>
	<path class="st0" d="M481.1,18c-17.4-17.4-45.7-17.4-63.2,0c-17.4-17.4-45.7-17.4-63.2,0c-17.4,17.4-17.4,45.7,0,63.2l44.6,44.6
		c10.3,10.3,27,10.3,37.2,0l44.6-44.6C498.5,63.7,498.5,35.4,481.1,18z M457.3,63.6l-28,27.7c-5.8,5.8-15.3,5.8-21.1,0l-27.9-27.9
		c-6-6-6.1-15.5-0.3-21.4c5.8-5.8,15.4-5.7,21.4,0.3l16.9,16.9L434,43.3l1.5-1.5c5.8-5.8,15.6-5.6,21.5,0.4
		C463,48.2,463.1,57.8,457.3,63.6z"/>
</g>
<path id="XMLID_3_" class="st0" d="M172.3,4c-8.5,0-14.1,4.5-16.9,13.4L135.9,81l-19.7-63c-2.9-9.4-9-14.1-18.1-14.1h-2.1
	C87,3.8,80.9,8.5,78,17.9L58.5,80.8l-19-63C36.6,8.6,30.9,4,22.4,4c-4.9,0-9,1.6-12.2,4.8C7,12,5.4,15.7,5.4,20
	c0,2.5,0.5,5.3,1.6,8.6l30.4,87.6c3.6,10.5,10,15.8,19.5,15.8h1.2c9.4,0,15.8-5,19-15.1L97,54.3l19.7,62.6c3.2,10,9.6,15.1,19,15.1
	h1.2c9.4,0,15.9-5.3,19.5-15.8l31.3-88.8c0.8-2.6,1.2-5,1.2-7.2c0-4.5-1.5-8.3-4.6-11.5C181.1,5.6,177.1,4,172.3,4z"/>
<path class="st0" d="M309.3,23.5c-4.6-6-10.9-10.9-18.9-14.7c-8-3.8-16.9-5.7-26.8-5.7c-17.8,0-32.5,6.3-44,18.8
	c-11.6,12.5-17.4,27.8-17.4,45.9v0.5c0,18.9,6.1,34.3,18.3,46.2c12.2,12,27.7,18,46.6,18c17,0,31.4-5,43.1-15.1
	c3.1-2.8,4.6-6.3,4.6-10.4c0-4-1.3-7.3-3.9-10c-2.6-2.6-5.9-3.9-9.7-3.9c-3.2,0-6.1,0.9-8.6,2.8c-7.6,5.6-15.9,8.3-25,8.3
	c-8,0-14.7-2.1-19.9-6.3c-5.3-4.2-8.7-10.2-10.4-18.1H307c4.6,0,8.5-1.6,11.7-4.8c3.2-3.2,4.8-7.2,4.8-12.2c0-6.8-1.2-13.6-3.6-20.3
	C317.5,35.9,314,29.5,309.3,23.5z M236.8,57.8c1.4-8.2,4.4-14.6,9.2-19.4c4.7-4.7,10.6-7.1,17.7-7.1c7.3,0,13.2,2.4,17.7,7.2
	c4.6,4.8,7.4,11.2,8.5,19.2H236.8z"/>
</svg>
